Dynamic Code Evolution 64-Bit Server VM warning: Option UseConcMarkSweepGC was deprecated in version 9.0 and will likely be removed in a future release.
WARNING: An illegal reflective access operation has occurred
WARNING: Illegal reflective access by com.intellij.util.ui.StartupUiUtil to constructor com.sun.java.swing.plaf.gtk.GTKLookAndFeel()
WARNING: Please consider reporting this to the maintainers of com.intellij.util.ui.StartupUiUtil
WARNING: Use --illegal-access=warn to enable warnings of further illegal reflective access operations
WARNING: All illegal access operations will be denied in a future release
ERROR: The file is locked: /home/canos/.cache/JetBrains/IdeaIC2021.1/icons-v2.db
org.jetbrains.mvstore.MVStoreException: The file is locked: /home/canos/.cache/JetBrains/IdeaIC2021.1/icons-v2.db
	at org.jetbrains.mvstore.FileStore.<init>(FileStore.java:109)
	at org.jetbrains.mvstore.MVStore$Builder.createFileStore(MVStore.java:4031)
	at org.jetbrains.mvstore.MVStore$Builder.openOrNewOnIoError(MVStore.java:3995)
	at com.intellij.ui.svg.SvgCacheManager.<init>(SvgCacheManager.java:59)
	at com.intellij.util.SVGLoader$SvgCache.<clinit>(SVGLoader.java:84)
	at com.intellij.util.SVGLoader.load(SVGLoader.java:217)
	at com.intellij.util.ImageLoader.loadByDescriptorWithoutCache(ImageLoader.java:261)
	at com.intellij.util.ImageLoader.loadByDescriptor(ImageLoader.java:227)
	at com.intellij.util.ImageLoader.loadImage(ImageLoader.java:152)
	at com.intellij.openapi.util.IconLoader$ResolvedImageDataResolver.loadImage(IconLoader.java:1057)
	at com.intellij.openapi.util.IconLoader$CachedImageIcon.loadImage(IconLoader.java:936)
	at com.intellij.openapi.util.IconLoader$ScaledIconCache.getOrScaleIcon(IconLoader.java:1005)
	at com.intellij.openapi.util.IconLoader$CachedImageIcon.scale(IconLoader.java:856)
	at com.intellij.util.IconUtil.scale(IconUtil.java:647)
	at com.intellij.util.IconUtil.scale(IconUtil.java:620)
	at com.intellij.ui.AppUIUtil.scaleIconToSize(AppUIUtil.java:189)
	at com.intellij.ui.AppUIUtil.loadApplicationIcon(AppUIUtil.java:181)
	at com.intellij.ui.AppUIUtil.loadApplicationIconImage(AppUIUtil.java:160)
	at com.intellij.ui.AppUIUtil.updateWindowIcon(AppUIUtil.java:70)
	at com.intellij.idea.StartupUtil.updateFrameClassAndWindowIcon(StartupUtil.java:433)
	at java.base/java.util.concurrent.CompletableFuture$UniRun.tryFire(CompletableFuture.java:783)
	at java.base/java.util.concurrent.CompletableFuture$Completion.run(CompletableFuture.java:478)
	at java.base/java.util.concurrent.ThreadPoolExecutor.runWorker(ThreadPoolExecutor.java:1128)
	at java.base/java.util.concurrent.ThreadPoolExecutor$Worker.run(ThreadPoolExecutor.java:628)
	at java.base/java.util.concurrent.Executors$PrivilegedThreadFactory$1$1.run(Executors.java:668)
	at java.base/java.util.concurrent.Executors$PrivilegedThreadFactory$1$1.run(Executors.java:665)
	at java.base/java.security.AccessController.doPrivileged(Native Method)
	at java.base/java.util.concurrent.Executors$PrivilegedThreadFactory$1.run(Executors.java:665)
	at java.base/java.lang.Thread.run(Thread.java:834)
Already running
